[
 {
  "Description": "Twitch API token",
  "StartLine": 112,
  "EndLine": 112,
  "StartColumn": 8,
  "EndColumn": 54,
  "Match": "twitchSecret = \"zwqjvffo863374zioz1gd26thgsmu5\"",
  "Secret": "zwqjvffo863374zioz1gd26thgsmu5",
  "File": "secrets.go",
  "Commit": "",
  "Entropy": 0,
  "Author": "",
  "Email": "",
  "Date": "",
  "Message": "",
  "Tags": [],
  "RuleID": "twitch-api-token"
 },
 {
  "Description": "Typeform API token",
  "StartLine": 114,
  "EndLine": 114,
  "StartColumn": 8,
  "EndColumn": 90,
  "Match": "typeformAPIToken = \"tfp_HeDK4ZeCwwCHdvSnVnzKtjiyB1rLFyzspa7Y3Fo9yAp8_3pcodefNH4DhnE",
  "Secret": "tfp_HeDK4ZeCwwCHdvSnVnzKtjiyB1rLFyzspa7Y3Fo9yAp8_3pcodefNH4DhnE",
  "File": "secrets.go",
  "Commit": "",
  "Entropy": 0,
  "Author": "",
  "Email": "",
  "Date": "",
  "Message": "",
  "Tags": [],
  "RuleID": "typeform-api-token"
 },
 {
  "Description": "Generic API Key",
  "StartLine": 66,
  "EndLine": 66,
  "StartColumn": 11,
  "EndColumn": 63,
  "Match": "APIToken = \"live_5c03155f2266f3e00c20179c5b65502ab92\"",
  "Secret": "live_5c03155f2266f3e00c20179c5b65502ab92",
  "File": "secrets.go",
  "Commit": "",
  "Entropy": 3.8159573,
  "Author": "",
  "Email": "",
  "Date": "",
  "Message": "",
  "Tags": [],
  "RuleID": "generic-api-key"
 },
 {
  "Description": "Generic API Key",
  "StartLine": 68,
  "EndLine": 68,
  "StartColumn": 22,
  "EndColumn": 74,
  "Match": "APIToken = \"live_pub_0e1fe852b24b86f5cbd57192df2cabb\"",
  "Secret": "live_pub_0e1fe852b24b86f5cbd57192df2cabb",
  "File": "secrets.go",
  "Commit": "",
  "Entropy": 4.1275673,
  "Author": "",
  "Email": "",
  "Date": "",
  "Message": "",
  "Tags": [],
  "RuleID": "generic-api-key"
 },
 {
  "Description": "PGP private key",
  "StartLine": 1,
  "EndLine": 1,
  "StartColumn": 1,
  "EndColumn": 37,
  "Match": "-----BEGIN PGP PRIVATE KEY BLOCK-----",
  "Secret": "-----BEGIN PGP PRIVATE KEY BLOCK-----",
  "File": "keys/pgp_rsa_key",
  "Commit": "",
  "Entropy": 0,
  "Author": "",
  "Email": "",
  "Date": "",
  "Message": "",
  "Tags": [],
  "RuleID": "PGP-PK"
 }
]
